<?xml version="1.0" standalone="no"?>
<!DOCTYPE svg PUBLIC "-//W3C//DTD SVG 1.1//EN" "http://www.w3.org/Graphics/SVG/1.1/DTD/svg11.dtd" >
<svg xmlns="http://www.w3.org/2000/svg">
<metadata>Generated by IcoMoon</metadata>
<defs>
<font id="icomoon" horiz-adv-x="1024">
<font-face units-per-em="1024" ascent="960" descent="-64" />
<missing-glyph horiz-adv-x="1024" />
<glyph unicode="&#x20;" horiz-adv-x="512" d="" />
<glyph unicode="&#xe900;" glyph-name="checkmark" d="M512 864c-229.76 0-416-186.24-416-416s186.24-416 416-416 416 186.24 416 416-186.24 416-416 416zM744.256 566.176l-303.552-303.52c-7.616-7.584-19.936-7.584-27.552 0l-6.112 6.112-0.032-0.032-167.008 168.192c-7.616 7.616-7.616 19.968 0 27.584l41.408 41.376c7.616 7.616 19.968 7.616 27.584 0l118.048-118.912 248.192 248.192c7.616 7.616 19.968 7.616 27.584 0l41.408-41.408c7.648-7.584 7.648-19.936 0.032-27.584z" />
<glyph unicode="&#xe901;" glyph-name="checkmark2" d="M698.24 543.040l-32.064 32.064c-5.92 5.92-15.488 5.92-21.376 0l-192.448-192.416-91.488 92.224c-5.952 5.92-15.488 5.92-21.44 0l-32.064-32.096c-5.92-5.92-5.92-15.488 0-21.376l134.176-135.136c5.92-5.888 15.488-5.888 21.376 0l235.328 235.328c5.952 5.92 5.952 15.488 0 21.408zM512 864c-229.76 0-416-186.24-416-416s186.24-416 416-416 416 186.24 416 416-186.24 416-416 416zM512 128c-176.704 0-320 143.296-320 320 0 176.736 143.296 320 320 320 176.736 0 320-143.264 320-320 0-176.704-143.264-320-320-320z" />
<glyph unicode="&#xe902;" glyph-name="cancel" d="M512 32c-229.76 0-416 186.24-416 416s186.24 416 416 416 416-186.24 416-416-186.24-416-416-416zM702.752 569.312c7.808 7.808 7.808 20.512 0 28.32l-42.496 42.464c-7.808 7.808-20.512 7.808-28.32 0l-120.352-120.352-120.352 120.352c-7.808 7.808-20.512 7.808-28.32 0l-42.496-42.464c-7.808-7.808-7.808-20.512 0-28.32l120.384-120.384-120.384-120.32c-7.808-7.808-7.808-20.512 0-28.32l42.496-42.496c7.808-7.808 20.512-7.808 28.32 0l120.352 120.384 120.352-120.384c7.808-7.808 20.512-7.808 28.32 0l42.496 42.496c7.808 7.808 7.808 20.512 0 28.32l-120.384 120.32 120.384 120.384z" />
<glyph unicode="&#xe903;" glyph-name="cancel2" d="M512 32c-229.76 0-416 186.24-416 416s186.24 416 416 416 416-186.24 416-416-186.24-416-416-416zM512 768c-176.704 0-320-143.296-320-320s143.296-320 320-320c176.736 0 320 143.296 320 320s-143.264 320-320 320zM657.184 334.88l-32.448-32.448c-5.952-5.952-15.616-5.952-21.6 0l-91.84 91.84-91.84-91.84c-5.984-5.952-15.616-5.952-21.6 0l-32.448 32.448c-5.952 5.952-5.952 15.616 0 21.6l91.872 91.808-91.872 91.84c-5.952 5.984-5.952 15.648 0 21.632l32.448 32.416c5.984 5.984 15.616 5.984 21.6 0l91.84-91.84 91.84 91.84c5.984 5.984 15.648 5.984 21.6 0l32.448-32.416c5.952-5.984 5.952-15.648 0-21.632l-91.872-91.84 91.872-91.808c5.952-5.984 5.952-15.68 0-21.6z" />
<glyph unicode="&#xe904;" glyph-name="plus" d="M496 16c-229.76 0-416 186.24-416 416s186.24 416 416 416 416-186.24 416-416-186.24-416-416-416zM702.016 449.984c0 17.664-14.336 32-32 32h-128v128c0 17.664-14.304 32-32 32h-32c-17.696 0-32-14.336-32-32v-128h-128c-17.696 0-32-14.336-32-32v-32c0-17.696 14.304-32 32-32h128v-128c0-17.696 14.304-32 32-32h32c17.696 0 32 14.304 32 32v128h128c17.664 0 32 14.304 32 32v32z" />
<glyph unicode="&#xe905;" glyph-name="plus2" d="M512 32c-229.76 0-416 186.24-416 416s186.24 416 416 416 416-186.24 416-416-186.24-416-416-416zM512 768c-176.704 0-320-143.264-320-320 0-176.704 143.296-320 320-320 176.736 0 320 143.296 320 320 0 176.736-143.264 320-320 320zM639.616 416h-96v-96c0-17.696-14.336-32-32-32-17.696 0-32 14.304-32 32v96h-96c-17.696 0-32 14.336-32 32s14.304 32 32 32h96v96c0 17.696 14.304 32 32 32 17.664 0 32-14.304 32-32v-96h96c17.664 0 32-14.336 32-32s-14.336-32-32-32z" />
<glyph unicode="&#xe906;" glyph-name="minus" d="M496 848c-229.76 0-416-186.24-416-416s186.24-416 416-416c229.76 0 416 186.24 416 416s-186.24 416-416 416zM704 420c0-17.696-14.336-32-32-32h-352c-17.696 0-32 14.304-32 32v32c0 17.664 14.304 32 32 32h352c17.664 0 32-14.336 32-32v-32z" />
<glyph unicode="&#xe907;" glyph-name="minus2" d="M512 864c-229.76 0-416-186.24-416-416s186.24-416 416-416 416 186.24 416 416-186.24 416-416 416zM512 128c-176.704 0-320 143.296-320 320 0 176.736 143.296 320 320 320 176.736 0 320-143.264 320-320 0-176.704-143.264-320-320-320zM631.616 480h-256c-17.696 0-32-14.336-32-32 0-17.696 14.304-32 32-32h256c17.696 0 32 14.304 32 32 0 17.664-14.304 32-32 32z" />
<glyph unicode="&#xe908;" glyph-name="checkmark3" d="M698.24 543.040l-32.064 32.064c-5.92 5.92-15.488 5.92-21.376 0l-192.448-192.416-91.488 92.224c-5.952 5.92-15.488 5.92-21.44 0l-32.064-32.096c-5.92-5.92-5.92-15.488 0-21.376l134.176-135.136c5.92-5.888 15.488-5.888 21.376 0l235.328 235.328c5.952 5.92 5.952 15.488 0 21.408zM512 864c-229.76 0-416-186.24-416-416s186.24-416 416-416 416 186.24 416 416-186.24 416-416 416zM512 128c-176.704 0-320 143.296-320 320 0 176.736 143.296 320 320 320 176.736 0 320-143.264 320-320 0-176.704-143.264-320-320-320z" />
<glyph unicode="&#xe909;" glyph-name="linkedin-with-circle" d="M512 952.32c-271.462 0-491.52-220.058-491.52-491.52s220.058-491.52 491.52-491.52 491.52 220.058 491.52 491.52-220.058 491.52-491.52 491.52zM391.68 257.075h-99.533v320.307h99.533v-320.307zM341.299 616.704c-31.437 0-51.763 22.272-51.763 49.818 0 28.109 20.941 49.715 53.043 49.715s51.763-21.606 52.378-49.715c0-27.546-20.275-49.818-53.658-49.818zM755.2 257.075h-99.533v177.51c0 41.318-14.438 69.376-50.432 69.376-27.494 0-43.827-18.995-51.046-37.274-2.662-6.502-3.328-15.718-3.328-24.883v-184.678h-99.584v218.112c0 39.987-1.28 73.421-2.611 102.195h86.477l4.557-44.493h1.997c13.107 20.89 45.21 51.712 98.918 51.712 65.485 0 114.586-43.878 114.586-138.189v-189.389z" />
<glyph unicode="&#xe90a;" glyph-name="twitter-with-circle" d="M512 952.32c-271.462 0-491.52-220.058-491.52-491.52s220.058-491.52 491.52-491.52 491.52 220.058 491.52 491.52-220.058 491.52-491.52 491.52zM711.936 549.683c0.205-4.198 0.256-8.397 0.256-12.493 0-128-97.331-275.507-275.405-275.507-54.682 0-105.574 15.974-148.378 43.52 7.526-0.922 15.258-1.28 23.091-1.28 45.363 0 87.091 15.411 120.218 41.421-42.342 0.819-78.080 28.774-90.419 67.174 5.888-1.075 11.93-1.69 18.176-1.69 8.806 0 17.408 1.178 25.498 3.379-44.288 8.909-77.67 48.026-77.67 94.925v1.178c13.056-7.219 28.006-11.622 43.878-12.134-26.010 17.408-43.059 47.002-43.059 80.64 0 17.715 4.762 34.406 13.107 48.691 47.77-58.573 119.040-97.075 199.526-101.222-1.69 7.117-2.509 14.49-2.509 22.118 0 53.402 43.315 96.819 96.819 96.819 27.802 0 52.992-11.776 70.656-30.618 22.067 4.403 42.752 12.39 61.44 23.501-7.219-22.579-22.528-41.574-42.547-53.606 19.61 2.406 38.246 7.578 55.603 15.309-12.954-19.405-29.389-36.506-48.282-50.125z" />
<glyph unicode="&#xe90b;" glyph-name="github-with-circle" d="M512.768 463.411c0 0-0.512 0-0.768 0h-0.768c-60.979 0-114.688 15.514-146.483-13.722-18.995-17.51-26.982-38.605-26.982-61.286 0-94.822 75.93-106.496 173.517-106.496h1.485c97.536 0 173.517 11.725 173.517 106.496 0 22.682-7.987 43.827-26.982 61.286-31.846 29.235-85.555 13.722-146.534 13.722zM429.722 333.824c-18.586 0-33.587 20.89-33.587 46.592s15.002 46.49 33.587 46.49c18.586 0 33.638-20.787 33.638-46.49 0.051-25.702-15.002-46.592-33.638-46.592zM594.227 333.824c-18.586 0-33.638 20.89-33.638 46.592s15.053 46.49 33.638 46.49c18.534 0 33.587-20.787 33.587-46.49 0.051-25.702-15.002-46.592-33.587-46.592zM512 952.32c-271.462 0-491.52-220.058-491.52-491.52s220.058-491.52 491.52-491.52 491.52 220.058 491.52 491.52-220.058 491.52-491.52 491.52zM556.851 259.123c-8.806 0-26.317 0-44.851-0.102-18.534 0.102-36.045 0.102-44.851 0.102-38.912 0-193.126 3.021-193.126 188.877 0 42.701 14.643 73.984 38.656 100.096-3.789 9.421-3.994 63.078 16.384 114.483 0 0 46.899-5.12 117.811-53.811 14.797 4.147 39.987 6.246 65.126 6.246s50.278-2.099 65.178-6.195c70.912 48.691 117.811 53.811 117.811 53.811 20.378-51.405 20.224-105.114 16.384-114.483 24.013-26.112 38.656-57.395 38.656-100.096-0.051-185.958-154.266-188.928-193.178-188.928z" />
</font></defs></svg>